<svg width="6" height="11" viewBox="0 0 6 11" xmlns="http://www.w3.org/2000/svg">
    <path d="M-2.24147e-08 10.5C-5.59028e-10 11 0.3 11.2 0.7 10.8L5.3 6.20003C5.7 5.80003 5.7 5.20003 5.3 4.80003L0.7 0.200028C0.299999 -0.199971 -4.85755e-07 -0.0999718 -4.59529e-07 0.500029L-2.24147e-08 10.5Z"/>
</svg>
