<svg width="6" height="11" viewBox="0 0 6 11" xmlns="http://www.w3.org/2000/svg">
    <path d="M5.6001 0.499972C5.6001 -2.83122e-05 5.3001 -0.200028 4.9001 0.199972L0.300097 4.79997C-0.0999029 5.19997 -0.0999029 5.79997 0.300097 6.19997L4.9001 10.8C5.3001 11.2 5.6001 11.1 5.6001 10.5L5.6001 0.499972Z"/>
</svg>
