<svg width="11" height="6" viewBox="0 0 11 6" xmlns="http://www.w3.org/2000/svg">
<path d="M10.4999 5.60001C10.9999 5.60001 11.1999 5.30001 10.7999 4.90001L6.19991 0.300005C5.79991 -0.0999946 5.19991 -0.0999947 4.79991 0.300005L0.199906 4.90001C-0.200093 5.30001 -0.100094 5.60001 0.499907 5.60001L10.4999 5.60001Z"/>
</svg>
