<svg width="27" height="35" viewBox="0 0 27 35" fill="none" xmlns="http://www.w3.org/2000/svg">
<path d="M22.45 20.75C22.45 20.75 20.15 18.55 16.85 18.25C14.85 18.05 13.65 18.15 13.65 18.15L15.05 23.55H13.65L10.95 18.15H7.75C7.75 18.15 7.25 18.15 7.05 17.95C6.85 17.75 6.75 17.45 6.75 17.35C6.75 17.25 6.85 17.05 7.05 16.75C7.25 16.55 7.75 16.55 7.75 16.55H10.95L13.65 11.15H15.15L13.75 16.55C13.75 16.55 14.95 16.65 16.95 16.45C20.25 16.05 22.55 13.95 22.55 13.95L25.15 11.35C26.55 9.95 26.55 7.65 25.15 6.35L19.85 1.05C18.45 -0.35 16.15 -0.35 14.85 1.05L8.85 7.05L1.05 14.85C-0.35 16.25 -0.35 18.55 1.05 19.85L8.85 27.65L14.85 33.65C16.25 35.05 18.55 35.05 19.85 33.65L25.15 28.35C26.55 26.95 26.55 24.65 25.15 23.35L22.45 20.75Z" fill="#273341"/>
</svg>
